{
  "Jenkinsfile-vim-syntax": { "branch": "master", "commit": "0d05729168ea44d60862f17cffa80024ab30bcc9" },
  "LuaSnip": { "branch": "master", "commit": "03c8e67eb7293c404845b3982db895d59c0d1538" },
  "alpha-nvim": { "branch": "main", "commit": "de72250e054e5e691b9736ee30db72c65d560771" },
  "auto-save.nvim": { "branch": "main", "commit": "979b6c82f60cfa80f4cf437d77446d0ded0addf0" },
  "barbecue": { "branch": "main", "commit": "cd7e7da622d68136e13721865b4d919efd6325ed" },
  "bufferline.nvim": { "branch": "main", "commit": "655133c3b4c3e5e05ec549b9f8cc2894ac6f51b3" },
  "cmp-buffer": { "branch": "main", "commit": "3022dbc9166796b644a841a02de8dd1cc1d311fa" },
  "cmp-cmdline": { "branch": "main", "commit": "d250c63aa13ead745e3a40f61fdd3470efde3923" },
  "cmp-dap": { "branch": "master", "commit": "ea92773e84c0ad3288c3bc5e452ac91559669087" },
  "cmp-emoji": { "branch": "main", "commit": "e8398e2adf512a03bb4e1728ca017ffeac670a9f" },
  "cmp-jenkinsfile": { "branch": "main", "commit": "cf0b5dafc8239ac038da630f0c780a71d064866b" },
  "cmp-nerdfont": { "branch": "main", "commit": "e97482344ebed29093015a18c155057adf5c842b" },
  "cmp-nvim-lsp": { "branch": "main", "commit": "99290b3ec1322070bcfb9e846450a46f6efa50f0" },
  "cmp-nvim-lsp-signature-help": { "branch": "main", "commit": "031e6ba70b0ad5eee49fd2120ff7a2e325b17fa7" },
  "cmp-nvim-lua": { "branch": "main", "commit": "f12408bdb54c39c23e67cab726264c10db33ada8" },
  "cmp-pandoc-references": { "branch": "master", "commit": "2c808dff631a783ddd2c554c4c6033907589baf6" },
  "cmp-path": { "branch": "main", "commit": "91ff86cd9c29299a64f968ebb45846c485725f23" },
  "cmp-spell": { "branch": "master", "commit": "694a4e50809d6d645c1ea29015dad0c293f019d6" },
  "cmp_luasnip": { "branch": "master", "commit": "98d9cb5c2c38532bd9bdb481067b20fea8f32e90" },
  "code_runner.nvim": { "branch": "main", "commit": "50a59cbc53e62cd6c171023935a19a79b4bf42fb" },
  "commander.nvim": { "branch": "main", "commit": "84101e8eb1613a72bbdec655b734f891d8a00694" },
  "conform.nvim": { "branch": "master", "commit": "a6f5bdb78caa305496357d17e962bbc4c0b392e2" },
  "diffview.nvim": { "branch": "main", "commit": "4516612fe98ff56ae0415a259ff6361a89419b0a" },
  "dracula.nvim": { "branch": "main", "commit": "96c9d19ce81b26053055ad6f688277d655b3f7d2" },
  "dressing.nvim": { "branch": "master", "commit": "2d7c2db2507fa3c4956142ee607431ddb2828639" },
  "fidget.nvim": { "branch": "main", "commit": "0ba1e16d07627532b6cae915cc992ecac249fb97" },
  "friendly-snippets": { "branch": "main", "commit": "efff286dd74c22f731cdec26a70b46e5b203c619" },
  "git-worktree.nvim": { "branch": "master", "commit": "f247308e68dab9f1133759b05d944569ad054546" },
  "gitsigns.nvim": { "branch": "main", "commit": "4c40357994f386e72be92a46f41fc1664c84c87d" },
  "indent-blankline.nvim": { "branch": "master", "commit": "e10626f7fcd51ccd56d7ffc00883ba7e0aa28f78" },
  "lazy.nvim": { "branch": "main", "commit": "6c3bda4aca61a13a9c63f1c1d1b16b9d3be90d7a" },
  "lspkind.nvim": { "branch": "master", "commit": "d79a1c3299ad0ef94e255d045bed9fa26025dab6" },
  "lualine.nvim": { "branch": "master", "commit": "f4f791f67e70d378a754d02da068231d2352e5bc" },
  "markdown-preview.nvim": { "branch": "master", "commit": "a923f5fc5ba36a3b17e289dc35dc17f66d0548ee" },
  "markdown.nvim": { "branch": "master", "commit": "dfa0d2def6dbf77e9206b16dc90cad4dd23d55d2" },
  "mason-lspconfig.nvim": { "branch": "main", "commit": "1a31f824b9cd5bc6f342fc29e9a53b60d74af245" },
  "mason-tool-installer.nvim": { "branch": "main", "commit": "5639d58a3d11ff7c05c8e31e159bfedae55d7961" },
  "mason-update-all": { "branch": "main", "commit": "007a4085fe5e830b9139313652e1553bf1a9b857" },
  "mason.nvim": { "branch": "main", "commit": "fc98833b6da5de5a9c5b1446ac541577059555be" },
  "mini.nvim": { "branch": "main", "commit": "0420076298c4457f200c2de468f65d080597a347" },
  "neodev.nvim": { "branch": "main", "commit": "46aa467dca16cf3dfe27098042402066d2ae242d" },
  "neogen": { "branch": "main", "commit": "b2e78708876f4da507839726816010a68e33fec8" },
  "neogit": { "branch": "master", "commit": "12f78aaabb37b4946254dd5e47cf7b552904937a" },
  "neotest": { "branch": "master", "commit": "dddbe8fe358b05b2b7e54fe4faab50563171a76d" },
  "neotest-bash": { "branch": "main", "commit": "57eab5b80a5296dc3fc5b22112b3ed78da3a5732" },
  "neotest-plenary": { "branch": "master", "commit": "3523adcf9ffaad1911960c5813b0136c1b63a2ec" },
  "neotest-python": { "branch": "master", "commit": "a2861ab3c9a0bf75a56b11835c2bfc8270f5be7e" },
  "neovim-codicons": { "branch": "main", "commit": "bd52f75ebde79b5dcb62e5f682543b58364997a7" },
  "noice.nvim": { "branch": "main", "commit": "0427460c2d7f673ad60eb02b35f5e9926cf67c59" },
  "nui.nvim": { "branch": "main", "commit": "53e907ffe5eedebdca1cd503b00aa8692068ca46" },
  "nvim-asciidoc-preview": { "branch": "main", "commit": "b12e113b5f7e7522b4e412213d5498cc529f2628" },
  "nvim-autopairs": { "branch": "master", "commit": "68f0e5c3dab23261a945272032ee6700af86227a" },
  "nvim-bqf": { "branch": "main", "commit": "ebb6d2689e4427452180f17c53f29f7e460236f1" },
  "nvim-cmp": { "branch": "main", "commit": "5a11682453ac6b13dbf32cd403da4ee9c07ef1c3" },
  "nvim-dap": { "branch": "master", "commit": "379cf26e9c457b66a0152cd5d018418c03720d47" },
  "nvim-dap-python": { "branch": "master", "commit": "34282820bb713b9a5fdb120ae8dd85c2b3f49b51" },
  "nvim-dap-ui": { "branch": "master", "commit": "bc81f8d3440aede116f821114547a476b082b319" },
  "nvim-dap-virtual-text": { "branch": "master", "commit": "df66808cd78b5a97576bbaeee95ed5ca385a9750" },
  "nvim-lint": { "branch": "master", "commit": "6e9dd545a1af204c4022a8fcd99727ea41ffdcc8" },
  "nvim-lspconfig": { "branch": "master", "commit": "5344e00b86d1ea50c39a1da8af9f3d197234bcfe" },
  "nvim-macros": { "branch": "main", "commit": "f29d08ee7844ed6c9552699206e8c977d6936ee4" },
  "nvim-navic": { "branch": "master", "commit": "8649f694d3e76ee10c19255dece6411c29206a54" },
  "nvim-nio": { "branch": "master", "commit": "21f5324bfac14e22ba26553caf69ec76ae8a7662" },
  "nvim-notify": { "branch": "master", "commit": "22f29093eae7785773ee9d543f8750348b1a195c" },
  "nvim-rooter.lua": { "branch": "main", "commit": "7689d05e8ab95acb4b24785253d913c0aae18be9" },
  "nvim-surround": { "branch": "main", "commit": "ae298105122c87bbe0a36b1ad20b06d417c0433e" },
  "nvim-treesitter": { "branch": "master", "commit": "8bc635a25f581d42b0a0e5ba8870bd73244dcdea" },
  "nvim-treesitter-textobjects": { "branch": "master", "commit": "88fce4e6496950dab867a7c63a819df0ead56751" },
  "nvim-ts-rainbow2": { "branch": "master", "commit": "b3120cd5ae9ca524af9cb602f41e12e301fa985f" },
  "nvim-web-devicons": { "branch": "master", "commit": "1020869742ecb191f260818234517f4a1515cfe8" },
  "oil.nvim": { "branch": "master", "commit": "975a77cce3c8cb742bc1b3629f4328f5ca977dad" },
  "plenary.nvim": { "branch": "master", "commit": "857c5ac632080dba10aae49dba902ce3abf91b35" },
  "render-markdown.nvim": { "branch": "main", "commit": "1cd546e96cb8520a148610ca86596ed238eeb936" },
  "telescope-dap.nvim": { "branch": "master", "commit": "783366bd6c1e7fa0a5c59c07db37f49c805a28df" },
  "telescope-file-browser.nvim": { "branch": "master", "commit": "626998e5c1b71c130d8bc6cf7abb6709b98287bb" },
  "telescope-fzf-native.nvim": { "branch": "main", "commit": "2a5ceff981501cff8f46871d5402cd3378a8ab6a" },
  "telescope-luasnip.nvim": { "branch": "master", "commit": "07a2a2936a7557404c782dba021ac0a03165b343" },
  "telescope-media-files.nvim": { "branch": "master", "commit": "0826c7a730bc4d36068f7c85cf4c5b3fd9fb570a" },
  "telescope-project.nvim": { "branch": "master", "commit": "ce2c9fe209a68c7a924acde42d94ed8a2b2a52c5" },
  "telescope-recent-files": { "branch": "main", "commit": "3a7a1b9c6b52b6ff7938c59f64c87a05e013dff8" },
  "telescope-undo.nvim": { "branch": "main", "commit": "928d0c2dc9606e01e2cc547196f48d2eaecf58e5" },
  "telescope.nvim": { "branch": "0.1.x", "commit": "a0bbec21143c7bc5f8bb02e0005fa0b982edc026" },
  "todo-comments.nvim": { "branch": "main", "commit": "304a8d204ee787d2544d8bc23cd38d2f929e7cc5" },
  "todo.txt-vim": { "branch": "master", "commit": "3bb5f9cf0d6c7ee91b476a97054c336104d2b6f5" },
  "toggleterm.nvim": { "branch": "main", "commit": "50ea089fc548917cc3cc16b46a8211833b9e3c7c" },
  "tokyonight.nvim": { "branch": "main", "commit": "057ef5d260c1931f1dffd0f052c685dcd14100a3" },
  "trouble.nvim": { "branch": "main", "commit": "85bedb7eb7fa331a2ccbecb9202d8abba64d37b3" },
  "venv-selector.nvim": { "branch": "regexp", "commit": "e82594274bf7b54387f9a2abe65f74909ac66e97" },
  "vim-bufkill": { "branch": "master", "commit": "3113181d0c1bfb8719f3ddcd2e2f35a8d763d1e5" },
  "vim-dadbod-completion": { "branch": "master", "commit": "464da308a988b5c8b136777a50182332b04f8d9f" },
  "vim-fugitive": { "branch": "master", "commit": "4a745ea72fa93bb15dd077109afbb3d1809383f2" },
  "vim-table-mode": { "branch": "master", "commit": "e4365bde024f73e205eefa2fb78e3029ddb92ea9" },
  "which-key.nvim": { "branch": "main", "commit": "370ec46f710e058c9c1646273e6b225acf47cbed" }
}
